{
    "baseUrl": "https://zenwear.aspen.cx",
    "env": {
        "server": "https://prod.condor.ac/",
        "baseUrl": "https://zenwear.aspen.cx",
        "orderServiceInit": "https://prod.condor.ac/customer/orderServiceInitialization/*",
        "orderService": "https://prod.condor.ac/customer/orderService/*"
    }
}